{
  "artists" : {
    "href" : "https://api.spotify.com/v1/search?query=coldplay&type=artist&offset=0&limit=3",
    "items" : [ {
      "external_urls" : {
        "spotify" : "https://open.spotify.com/artist/4gzpq5DPGxSnKTe4SA8HAU"
      },
      "followers" : {
        "href" : null,
        "total" : 6795925
      },
      "genres" : [ "permanent wave", "pop", "pop christmas" ],
      "href" : "https://api.spotify.com/v1/artists/4gzpq5DPGxSnKTe4SA8HAU",
      "id" : "4gzpq5DPGxSnKTe4SA8HAU",
      "images" : [ {
        "height" : 1000,
        "url" : "https://i.scdn.co/image/31fa9aa639d539dc93ab9e3570c7c70a1b5c64f8",
        "width" : 1000
      }, {
        "height" : 640,
        "url" : "https://i.scdn.co/image/f700aaf6ebf1f0105d4eece756d924ab7efc3441",
        "width" : 640
      }, {
        "height" : 200,
        "url" : "https://i.scdn.co/image/32e13d2c37af4817d1cbf09742c1f51a328820c7",
        "width" : 200
      }, {
        "height" : 64,
        "url" : "https://i.scdn.co/image/3f31f2b7e890c2e59a9e4d67ea37f459e7036991",
        "width" : 64
      } ],
      "name" : "Coldplay",
      "popularity" : 90,
      "type" : "artist",
      "uri" : "spotify:artist:4gzpq5DPGxSnKTe4SA8HAU"
    }, {
      "external_urls" : {
        "spotify" : "https://open.spotify.com/artist/14cDx3yNMNO94Ghqo3kVoF"
      },
      "followers" : {
        "href" : null,
        "total" : 85
      },
      "genres" : [ ],
      "href" : "https://api.spotify.com/v1/artists/14cDx3yNMNO94Ghqo3kVoF",
      "id" : "14cDx3yNMNO94Ghqo3kVoF",
      "images" : [ ],
      "name" : "Coldplay & Lele",
      "popularity" : 13,
      "type" : "artist",
      "uri" : "spotify:artist:14cDx3yNMNO94Ghqo3kVoF"
    }, {
      "external_urls" : {
        "spotify" : "https://open.spotify.com/artist/2wKgCt0edHo68HTsrWEJb2"
      },
      "followers" : {
        "href" : null,
        "total" : 177
      },
      "genres" : [ ],
      "href" : "https://api.spotify.com/v1/artists/2wKgCt0edHo68HTsrWEJb2",
      "id" : "2wKgCt0edHo68HTsrWEJb2",
      "images" : [ ],
      "name" : "Karaoke - Coldplay",
      "popularity" : 2,
      "type" : "artist",
      "uri" : "spotify:artist:2wKgCt0edHo68HTsrWEJb2"
    } ],
    "limit" : 3,
    "next" : "https://api.spotify.com/v1/search?query=coldplay&type=artist&offset=3&limit=3",
    "offset" : 0,
    "previous" : null,
    "total" : 10
  },
  "tracks" : {
    "href" : "https://api.spotify.com/v1/search?query=coldplay&type=track&offset=0&limit=3",
    "items" : [ {
      "album" : {
        "album_type" : "single",
        "artists" : [ {
          "external_urls" : {
            "spotify" : "https://open.spotify.com/artist/4gzpq5DPGxSnKTe4SA8HAU"
          },
          "href" : "https://api.spotify.com/v1/artists/4gzpq5DPGxSnKTe4SA8HAU",
          "id" : "4gzpq5DPGxSnKTe4SA8HAU",
          "name" : "Coldplay",
          "type" : "artist",
          "uri" : "spotify:artist:4gzpq5DPGxSnKTe4SA8HAU"
        }, {
          "external_urls" : {
            "spotify" : "https://open.spotify.com/artist/5iNrZmtVMtYev5M9yoWpEq"
          },
          "href" : "https://api.spotify.com/v1/artists/5iNrZmtVMtYev5M9yoWpEq",
          "id" : "5iNrZmtVMtYev5M9yoWpEq",
          "name" : "Seeb",
          "type" : "artist",
          "uri" : "spotify:artist:5iNrZmtVMtYev5M9yoWpEq"
        } ],
        "available_markets" : [ "AD", "AR", "AT", "AU", "BE", "BG", "BO", "BR", "CA", "CH", "CL", "CO", "CR", "CY", "CZ", "DE", "DK", "DO", "EC", "EE", "ES", "FI", "FR", "GB", "GR", "GT", "HK", "HN", "HU", "ID", "IE", "IS", "IT", "JP", "LI", "LT", "LU", "LV", "MC", "MT", "MX", "MY", "NI", "NL", "NO", "NZ", "PA", "PE", "PH", "PL", "PT", "PY", "SE", "SG", "SK", "SV", "TR", "TW", "US", "UY" ],
        "external_urls" : {
          "spotify" : "https://open.spotify.com/album/0ezwRysfWCrR5tDgpBwkIw"
        },
        "href" : "https://api.spotify.com/v1/albums/0ezwRysfWCrR5tDgpBwkIw",
        "id" : "0ezwRysfWCrR5tDgpBwkIw",
        "images" : [ {
          "height" : 640,
          "url" : "https://i.scdn.co/image/595846b1b208b9edfb91ee79b5b886456856da9f",
          "width" : 640
        }, {
          "height" : 300,
          "url" : "https://i.scdn.co/image/28758cd0b38df6a489937231bc30bcbdd309a755",
          "width" : 300
        }, {
          "height" : 64,
          "url" : "https://i.scdn.co/image/6196f528b365e8ef504fd0706fb7e87adecfe647",
          "width" : 64
        } ],
        "name" : "Hymn For The Weekend (Seeb Remix)",
        "type" : "album",
        "uri" : "spotify:album:0ezwRysfWCrR5tDgpBwkIw"
      },
      "artists" : [ {
        "external_urls" : {
          "spotify" : "https://open.spotify.com/artist/4gzpq5DPGxSnKTe4SA8HAU"
        },
        "href" : "https://api.spotify.com/v1/artists/4gzpq5DPGxSnKTe4SA8HAU",
        "id" : "4gzpq5DPGxSnKTe4SA8HAU",
        "name" : "Coldplay",
        "type" : "artist",
        "uri" : "spotify:artist:4gzpq5DPGxSnKTe4SA8HAU"
      }, {
        "external_urls" : {
          "spotify" : "https://open.spotify.com/artist/5iNrZmtVMtYev5M9yoWpEq"
        },
        "href" : "https://api.spotify.com/v1/artists/5iNrZmtVMtYev5M9yoWpEq",
        "id" : "5iNrZmtVMtYev5M9yoWpEq",
        "name" : "Seeb",
        "type" : "artist",
        "uri" : "spotify:artist:5iNrZmtVMtYev5M9yoWpEq"
      } ],
      "available_markets" : [ "AD", "AR", "AT", "AU", "BE", "BG", "BO", "BR", "CA", "CH", "CL", "CO", "CR", "CY", "CZ", "DE", "DK", "DO", "EC", "EE", "ES", "FI", "FR", "GB", "GR", "GT", "HK", "HN", "HU", "ID", "IE", "IS", "IT", "JP", "LI", "LT", "LU", "LV", "MC", "MT", "MX", "MY", "NI", "NL", "NO", "NZ", "PA", "PE", "PH", "PL", "PT", "PY", "SE", "SG", "SK", "SV", "TR", "TW", "US", "UY" ],
      "disc_number" : 1,
      "duration_ms" : 212647,
      "explicit" : false,
      "external_ids" : {
        "isrc" : "GBAYE1600763"
      },
      "external_urls" : {
        "spotify" : "https://open.spotify.com/track/6s3GEN8wK0OMzzzZbXj0fu"
      },
      "href" : "https://api.spotify.com/v1/tracks/6s3GEN8wK0OMzzzZbXj0fu",
      "id" : "6s3GEN8wK0OMzzzZbXj0fu",
      "name" : "Hymn For The Weekend - Seeb Remix",
      "popularity" : 82,
      "preview_url" : "https://p.scdn.co/mp3-preview/d36ebf2b3d829b008bfea00bca48536fa510b6f0?cid=null",
      "track_number" : 1,
      "type" : "track",
      "uri" : "spotify:track:6s3GEN8wK0OMzzzZbXj0fu"
    }, {
      "album" : {
        "album_type" : "album",
        "artists" : [ {
          "external_urls" : {
            "spotify" : "https://open.spotify.com/artist/4gzpq5DPGxSnKTe4SA8HAU"
          },
          "href" : "https://api.spotify.com/v1/artists/4gzpq5DPGxSnKTe4SA8HAU",
          "id" : "4gzpq5DPGxSnKTe4SA8HAU",
          "name" : "Coldplay",
          "type" : "artist",
          "uri" : "spotify:artist:4gzpq5DPGxSnKTe4SA8HAU"
        } ],
        "available_markets" : [ "AD", "AR", "AT", "AU", "BE", "BG", "BO", "BR", "CA", "CH", "CL", "CO", "CR", "CY", "CZ", "DE", "DK", "DO", "EC", "EE", "ES", "FI", "FR", "GB", "GR", "GT", "HK", "HN", "HU", "ID", "IE", "IS", "IT", "JP", "LI", "LT", "LU", "LV", "MC", "MT", "MX", "MY", "NI", "NL", "NO", "NZ", "PA", "PE", "PH", "PL", "PT", "PY", "SE", "SG", "SK", "SV", "TR", "TW", "US", "UY" ],
        "external_urls" : {
          "spotify" : "https://open.spotify.com/album/0RHX9XECH8IVI3LNgWDpmQ"
        },
        "href" : "https://api.spotify.com/v1/albums/0RHX9XECH8IVI3LNgWDpmQ",
        "id" : "0RHX9XECH8IVI3LNgWDpmQ",
        "images" : [ {
          "height" : 640,
          "url" : "https://i.scdn.co/image/70d8660d8b802835a280ce75799d30db262f7094",
          "width" : 640
        }, {
          "height" : 300,
          "url" : "https://i.scdn.co/image/671fb0a2ecb0c77cb693eb150bde7b6fa94b3f32",
          "width" : 300
        }, {
          "height" : 64,
          "url" : "https://i.scdn.co/image/fb5bf70413af17edae091532e9f0dc442af852cf",
          "width" : 64
        } ],
        "name" : "A Rush Of Blood To The Head",
        "type" : "album",
        "uri" : "spotify:album:0RHX9XECH8IVI3LNgWDpmQ"
      },
      "artists" : [ {
        "external_urls" : {
          "spotify" : "https://open.spotify.com/artist/4gzpq5DPGxSnKTe4SA8HAU"
        },
        "href" : "https://api.spotify.com/v1/artists/4gzpq5DPGxSnKTe4SA8HAU",
        "id" : "4gzpq5DPGxSnKTe4SA8HAU",
        "name" : "Coldplay",
        "type" : "artist",
        "uri" : "spotify:artist:4gzpq5DPGxSnKTe4SA8HAU"
      } ],
      "available_markets" : [ "AD", "AR", "AT", "AU", "BE", "BG", "BO", "BR", "CA", "CH", "CL", "CO", "CR", "CY", "CZ", "DE", "DK", "DO", "EC", "EE", "ES", "FI", "FR", "GB", "GR", "GT", "HK", "HN", "HU", "ID", "IE", "IS", "IT", "JP", "LI", "LT", "LU", "LV", "MC", "MT", "MX", "MY", "NI", "NL", "NO", "NZ", "PA", "PE", "PH", "PL", "PT", "PY", "SE", "SG", "SK", "SV", "TR", "TW", "US", "UY" ],
      "disc_number" : 1,
      "duration_ms" : 309600,
      "explicit" : false,
      "external_ids" : {
        "isrc" : "GBAYE0200772"
      },
      "external_urls" : {
        "spotify" : "https://open.spotify.com/track/75JFxkI2RXiU7L9VXzMkle"
      },
      "href" : "https://api.spotify.com/v1/tracks/75JFxkI2RXiU7L9VXzMkle",
      "id" : "75JFxkI2RXiU7L9VXzMkle",
      "name" : "The Scientist",
      "popularity" : 78,
      "preview_url" : "https://p.scdn.co/mp3-preview/95cb9df1b056d759920b5e85ad7f9aff0a390671?cid=null",
      "track_number" : 4,
      "type" : "track",
      "uri" : "spotify:track:75JFxkI2RXiU7L9VXzMkle"
    }, {
      "album" : {
        "album_type" : "album",
        "artists" : [ {
          "external_urls" : {
            "spotify" : "https://open.spotify.com/artist/4gzpq5DPGxSnKTe4SA8HAU"
          },
          "href" : "https://api.spotify.com/v1/artists/4gzpq5DPGxSnKTe4SA8HAU",
          "id" : "4gzpq5DPGxSnKTe4SA8HAU",
          "name" : "Coldplay",
          "type" : "artist",
          "uri" : "spotify:artist:4gzpq5DPGxSnKTe4SA8HAU"
        } ],
        "available_markets" : [ "AD", "AR", "AT", "AU", "BE", "BG", "BO", "BR", "CA", "CH", "CL", "CO", "CR", "CY", "CZ", "DE", "DK", "DO", "EC", "EE", "ES", "FI", "FR", "GB", "GR", "GT", "HK", "HN", "HU", "ID", "IE", "IS", "IT", "JP", "LI", "LT", "LU", "LV", "MC", "MT", "MX", "MY", "NI", "NL", "NO", "NZ", "PA", "PE", "PH", "PL", "PT", "PY", "SE", "SG", "SK", "SV", "TR", "TW", "US", "UY" ],
        "external_urls" : {
          "spotify" : "https://open.spotify.com/album/3cfAM8b8KqJRoIzt3zLKqw"
        },
        "href" : "https://api.spotify.com/v1/albums/3cfAM8b8KqJRoIzt3zLKqw",
        "id" : "3cfAM8b8KqJRoIzt3zLKqw",
        "images" : [ {
          "height" : 640,
          "url" : "https://i.scdn.co/image/9c2c4a9ac9726bfd996ff96383178bbb5efc59ab",
          "width" : 640
        }, {
          "height" : 300,
          "url" : "https://i.scdn.co/image/2f66abbf986dcc2fb1dca9bceb892123d5d10c3a",
          "width" : 300
        }, {
          "height" : 64,
          "url" : "https://i.scdn.co/image/8a87ac474db652dd6cd9fb208be0f37a4ea9c36b",
          "width" : 64
        } ],
        "name" : "A Head Full Of Dreams",
        "type" : "album",
        "uri" : "spotify:album:3cfAM8b8KqJRoIzt3zLKqw"
      },
      "artists" : [ {
        "external_urls" : {
          "spotify" : "https://open.spotify.com/artist/4gzpq5DPGxSnKTe4SA8HAU"
        },
        "href" : "https://api.spotify.com/v1/artists/4gzpq5DPGxSnKTe4SA8HAU",
        "id" : "4gzpq5DPGxSnKTe4SA8HAU",
        "name" : "Coldplay",
        "type" : "artist",
        "uri" : "spotify:artist:4gzpq5DPGxSnKTe4SA8HAU"
      } ],
      "available_markets" : [ "AD", "AR", "AT", "AU", "BE", "BG", "BO", "BR", "CA", "CH", "CL", "CO", "CR", "CY", "CZ", "DE", "DK", "DO", "EC", "EE", "ES", "FI", "FR", "GB", "GR", "GT", "HK", "HN", "HU", "ID", "IE", "IS", "IT", "JP", "LI", "LT", "LU", "LV", "MC", "MT", "MX", "MY", "NI", "NL", "NO", "NZ", "PA", "PE", "PH", "PL", "PT", "PY", "SE", "SG", "SK", "SV", "TR", "TW", "US", "UY" ],
      "disc_number" : 1,
      "duration_ms" : 258826,
      "explicit" : false,
      "external_ids" : {
        "isrc" : "GBAYE1500979"
      },
      "external_urls" : {
        "spotify" : "https://open.spotify.com/track/3RiPr603aXAoi4GHyXx0uy"
      },
      "href" : "https://api.spotify.com/v1/tracks/3RiPr603aXAoi4GHyXx0uy",
      "id" : "3RiPr603aXAoi4GHyXx0uy",
      "name" : "Hymn For The Weekend",
      "popularity" : 78,
      "preview_url" : "https://p.scdn.co/mp3-preview/0e36103f9c968a7f07d502003a109c314f36ae9c?cid=null",
      "track_number" : 3,
      "type" : "track",
      "uri" : "spotify:track:3RiPr603aXAoi4GHyXx0uy"
    } ],
    "limit" : 3,
    "next" : "https://api.spotify.com/v1/search?query=coldplay&type=track&offset=3&limit=3",
    "offset" : 0,
    "previous" : null,
    "total" : 4543
  }
}
